256 1400.780792
336 1349.675473
424 1381.545707
512 1400.632004
680 1428.695625
848 1444.486120
1024 1455.184111
1360 1468.069438
1704 1475.786424
2048 1481.637806
2728 1488.110545
3408 1492.062801
4096 1495.119797
5456 1498.493502
6824 1500.288072
8192 1501.760471
10920 1503.147462
13648 1504.327437
16384 1505.120581
21840 1505.340046
27304 1511.209764
32768 1517.952973
43688 1507.399420
54608 1506.065033
65536 1516.614981
87376 1484.812747
109224 1488.463611
131072 1477.027767
174760 1484.167904
218448 1345.866649
262144 1192.138047
349520 984.605213
436904 1018.646002
524288 960.568967
699048 970.864760
873808 946.641841
1048576 944.243796
1398096 940.877033
1747624 941.438634
2097152 937.945350
2796200 937.064922
3495248 934.835896
4194304 934.561926
5592400 934.101488
6990504 933.825873
8388608 933.518448
11184808 933.001749
13981008 932.925105
16777216 932.991478
22369616 932.723084
27962024 932.708088
33554432 932.843021
44739240 932.589078
55924048 932.502097
67108864 932.470487
89478480 932.466891
111848104 932.410631
134217728 932.410613
178956968 932.413959
223696208 932.418693
268435456 932.432551
357913936 932.346803
447392424 932.441331
536870912 932.468531
